post_fab_test/G12_CLK10NF/F0024CH2.CSV

Record Length,2.500000e+03,,  -0.007400000000,   2.08000,
Sample Interval,4.000000e-06,,  -0.007396000000,   2.08000,
Trigger Point,1.850000000000e+03,,  -0.007392000000,   2.08000,
,,,  -0.007388000000,   2.08000,
,,,  -0.007384000000,   2.04000,
,,,  -0.007380000000,   2.04000,
Source,CH2,,  -0.007376000000,   2.04000,
Vertical Units,V,,  -0.007372000000,   1.44000,
Vertical Scale,1.000000e+00,,  -0.007368000000,   1.32000,
Vertical Offset,-1.160000e+00,,  -0.007364000000,   1.32000,
Horizontal Units,s,,  -0.007360000000,   1.28000,
Horizontal Scale,1.000000e-03,,  -0.007356000000,   1.32000,
Pt Fmt,Y,,  -0.007352000000,   1.28000,
Yzero,0.000000e+00,,  -0.007348000000,   1.28000,
Probe Atten,1.000000e+00,,  -0.007344000000,   1.28000,
Model Number,TDS2024C,,  -0.007340000000,   1.28000,
Serial Number,C052602,,  -0.007336000000,   1.28000,
Firmware Version,FV:v24.26,,  -0.007332000000,   1.24000,
,,,-00.007328000000,   1.28000,
,,,-00.007324000000,   1.24000,
,,,-00.007320000000,   1.20000,
,,,-00.007316000000,   1.20000,
,,,-00.007312000000,   1.20000,
,,,-00.007308000000,   1.20000,
,,,-00.007304000000,   1.16000,
,,,-00.007300000000,   1.16000,
,,,-00.007296000000,   1.20000,
,,,-00.007292000000,   1.16000,
,,,-00.007288000000,   1.16000,
,,,-00.007284000000,   1.16000,
,,,-00.007280000000,   1.16000,
,,,-00.007276000000,   1.12000,
,,,-00.007272000000,   1.12000,
,,,-00.007268000000,   1.16000,
,,,-00.007264000000,   1.12000,
,,,-00.007260000000,   1.12000,
,,,-00.007256000000,   1.08000,
,,,-00.007252000000,   1.08000,
,,,-00.007248000000,   1.12000,
,,,-00.007244000000,   1.08000,
,,,-00.007240000000,   1.08000,
,,,-00.007236000000,   1.08000,
,,,-00.007232000000,   1.08000,
,,,-00.007228000000,   1.08000,
,,,-00.007224000000,   1.08000,
,,,-00.007220000000,   1.08000,
,,,-00.007216000000,   1.08000,
,,,-00.007212000000,   1.08000,
,,,-00.007208000000,   1.08000,
,,,-00.007204000000,   1.04000,
,,,-00.007200000000,   1.08000,
,,,-00.007196000000,   1.04000,
,,,-00.007192000000,   1.00000,
,,,-00.007188000000,   1.04000,
,,,-00.007184000000,   1.04000,
,,,-00.007180000000,   1.04000,
,,,-00.007176000000,   1.04000,
,,,-00.007172000000,   1.00000,
,,,-00.007168000000,   1.00000,
,,,-00.007164000000,   1.00000,
,,,-00.007160000000,   1.00000,
,,,-00.007156000000,   1.00000,
,,,-00.007152000000,   1.00000,
,,,-00.007148000000,   1.00000,
,,,-00.007144000000,   1.00000,
,,,-00.007140000000,   0.96000,
,,,-00.007136000000,   0.96000,
,,,-00.007132000000,   0.96000,
,,,-00.007128000000,   0.96000,
,,,-00.007124000000,   0.96000,
,,,-00.007120000000,   0.96000,
,,,-00.007116000000,   0.96000,
,,,-00.007112000000,   0.96000,
,,,-00.007108000000,   0.92000,
,,,-00.007104000000,   0.96000,
,,,-00.007100000000,   0.96000,
,,,-00.007096000000,   0.92000,
,,,-00.007092000000,   0.96000,
,,,-00.007088000000,   0.96000,
,,,-00.007084000000,   0.96000,
,,,-00.007080000000,   0.96000,
,,,-00.007076000000,   0.92000,
,,,-00.007072000000,   0.96000,
,,,-00.007068000000,   0.92000,
,,,-00.007064000000,   0.96000,
,,,-00.007060000000,   0.96000,
,,,-00.007056000000,   0.92000,
,,,-00.007052000000,   0.92000,
,,,-00.007048000000,   0.92000,
,,,-00.007044000000,   0.92000,
,,,-00.007040000000,   0.92000,
,,,-00.007036000000,   0.92000,
,,,-00.007032000000,   0.92000,
,,,-00.007028000000,   0.92000,
,,,-00.007024000000,   0.88000,
,,,-00.007020000000,   0.92000,
,,,-00.007016000000,   0.96000,
,,,-00.007012000000,   0.92000,
,,,-00.007008000000,   0.92000,
,,,-00.007004000000,   0.92000,
,,,-00.007000000000,   0.92000,
,,,-00.006996000000,   0.92000,
,,,-00.006992000000,   0.92000,
,,,-00.006988000000,   0.92000,
,,,-00.006984000000,   0.88000,
,,,-00.006980000000,   0.92000,
,,,-00.006976000000,   0.92000,
,,,-00.006972000000,   0.88000,
,,,-00.006968000000,   0.92000,
,,,-00.006964000000,   0.92000,
,,,-00.006960000000,   0.92000,
,,,-00.006956000000,   0.92000,
,,,-00.006952000000,   0.96000,
,,,-00.006948000000,   0.96000,
,,,-00.006944000000,   0.96000,
,,,-00.006940000000,   0.96000,
,,,-00.006936000000,   1.04000,
,,,-00.006932000000,   2.00000,
,,,-00.006928000000,   2.20000,
,,,-00.006924000000,   2.20000,
,,,-00.006920000000,   2.20000,
,,,-00.006916000000,   2.24000,
,,,-00.006912000000,   2.20000,
,,,-00.006908000000,   2.20000,
,,,-00.006904000000,   2.20000,
,,,-00.006900000000,   2.24000,
,,,-00.006896000000,   2.24000,
,,,-00.006892000000,   2.20000,
,,,-00.006888000000,   2.24000,
,,,-00.006884000000,   2.20000,
,,,-00.006880000000,   2.20000,
,,,-00.006876000000,   2.20000,
,,,-00.006872000000,   2.20000,
,,,-00.006868000000,   2.24000,
,,,-00.006864000000,   2.24000,
,,,-00.006860000000,   2.24000,
,,,-00.006856000000,   2.20000,
,,,-00.006852000000,   2.24000,
,,,-00.006848000000,   2.20000,
,,,-00.006844000000,   2.24000,
,,,-00.006840000000,   2.20000,
,,,-00.006836000000,   2.24000,
,,,-00.006832000000,   2.24000,
,,,-00.006828000000,   2.24000,
,,,-00.006824000000,   2.20000,
,,,-00.006820000000,   2.24000,
,,,-00.006816000000,   2.24000,
,,,-00.006812000000,   2.24000,
,,,-00.006808000000,   2.20000,
,,,-00.006804000000,   2.20000,
,,,-00.006800000000,   2.24000,
,,,-00.006796000000,   2.20000,
,,,-00.006792000000,   2.20000,
,,,-00.006788000000,   2.20000,
,,,-00.006784000000,   2.20000,
,,,-00.006780000000,   2.20000,
,,,-00.006776000000,   2.20000,
,,,-00.006772000000,   2.24000,
,,,-00.006768000000,   2.20000,
,,,-00.006764000000,   2.20000,
,,,-00.006760000000,   2.16000,
,,,-00.006756000000,   2.20000,
,,,-00.006752000000,   2.20000,
,,,-00.006748000000,   2.16000,
,,,-00.006744000000,   2.16000,
,,,-00.006740000000,   2.16000,
,,,-00.006736000000,   2.16000,
,,,-00.006732000000,   2.16000,
,,,-00.006728000000,   2.16000,
,,,-00.006724000000,   2.16000,
,,,-00.006720000000,   2.16000,
,,,-00.006716000000,   2.16000,
,,,-00.006712000000,   2.12000,
,,,-00.006708000000,   2.16000,
,,,-00.006704000000,   2.16000,
,,,-00.006700000000,   2.12000,
,,,-00.006696000000,   2.12000,
,,,-00.006692000000,   2.12000,
,,,-00.006688000000,   2.08000,
,,,-00.006684000000,   2.12000,
,,,-00.006680000000,   2.12000,
,,,-00.006676000000,   2.08000,
,,,-00.006672000000,   2.12000,
,,,-00.006668000000,   2.08000,
,,,-00.006664000000,   2.12000,
,,,-00.006660000000,   2.08000,
,,,-00.006656000000,   2.08000,
,,,-00.006652000000,   2.08000,
,,,-00.006648000000,   2.08000,
,,,-00.006644000000,   2.08000,
,,,-00.006640000000,   2.08000,
,,,-00.006636000000,   2.04000,
,,,-00.006632000000,   2.08000,
,,,-00.006628000000,   2.08000,
,,,-00.006624000000,   2.08000,
,,,-00.006620000000,   2.08000,
,,,-00.006616000000,   2.08000,
,,,-00.006612000000,   2.04000,
,,,-00.006608000000,   2.08000,
,,,-00.006604000000,   2.04000,
,,,-00.006600000000,   1.48000,
,,,-00.006596000000,   1.28000,
,,,-00.006592000000,   1.32000,
,,,-00.006588000000,   1.32000,
,,,-00.006584000000,   1.28000,
,,,-00.006580000000,   1.28000,
,,,-00.006576000000,   1.28000,
,,,-00.006572000000,   1.28000,
,,,-00.006568000000,   1.28000,
,,,-00.006564000000,   1.24000,
,,,-00.006560000000,   1.24000,
,,,-00.006556000000,   1.24000,
,,,-00.006552000000,   1.20000,
,,,-00.006548000000,   1.20000,
,,,-00.006544000000,   1.24000,
,,,-00.006540000000,   1.24000,
,,,-00.006536000000,   1.20000,
,,,-00.006532000000,   1.16000,
,,,-00.006528000000,   1.20000,
,,,-00.006524000000,   1.16000,
,,,-00.006520000000,   1.16000,
,,,-00.006516000000,   1.16000,
,,,-00.006512000000,   1.16000,
,,,-00.006508000000,   1.16000,
,,,-00.006504000000,   1.12000,
,,,-00.006500000000,   1.12000,
,,,-00.006496000000,   1.12000,
,,,-00.006492000000,   1.12000,
,,,-00.006488000000,   1.12000,
,,,-00.006484000000,   1.08000,
,,,-00.006480000000,   1.12000,
,,,-00.006476000000,   1.08000,
,,,-00.006472000000,   1.08000,
,,,-00.006468000000,   1.08000,
,,,-00.006464000000,   1.08000,
,,,-00.006460000000,   1.08000,
,,,-00.006456000000,   1.08000,
,,,-00.006452000000,   1.04000,
,,,-00.006448000000,   1.08000,
,,,-00.006444000000,   1.04000,
,,,-00.006440000000,   1.08000,
,,,-00.006436000000,   1.08000,
,,,-00.006432000000,   1.04000,
,,,-00.006428000000,   1.04000,
,,,-00.006424000000,   1.00000,
,,,-00.006420000000,   1.08000,
,,,-00.006416000000,   1.04000,
,,,-00.006412000000,   1.04000,
,,,-00.006408000000,   1.04000,
,,,-00.006404000000,   1.00000,
,,,-00.006400000000,   1.00000,
,,,-00.006396000000,   1.00000,
,,,-00.006392000000,   1.00000,
,,,-00.006388000000,   1.04000,
,,,-00.006384000000,   1.00000,
,,,-00.006380000000,   1.00000,
,,,-00.006376000000,   1.00000,
,,,-00.006372000000,   0.96000,
,,,-00.006368000000,   0.96000,
,,,-00.006364000000,   1.00000,
,,,-00.006360000000,   0.96000,
,,,-00.006356000000,   0.96000,
,,,-00.006352000000,   0.96000,
,,,-00.006348000000,   0.96000,
,,,-00.006344000000,   0.96000,
,,,-00.006340000000,   0.96000,
,,,-00.006336000000,   0.96000,
,,,-00.006332000000,   0.96000,
,,,-00.006328000000,   0.96000,
,,,-00.006324000000,   0.96000,
,,,-00.006320000000,   0.96000,
,,,-00.006316000000,   0.96000,
,,,-00.006312000000,   0.96000,
,,,-00.006308000000,   0.96000,
,,,-00.006304000000,   0.92000,
,,,-00.006300000000,   0.92000,
,,,-00.006296000000,   0.96000,
,,,-00.006292000000,   0.92000,
,,,-00.006288000000,   0.92000,
,,,-00.006284000000,   0.96000,
,,,-00.006280000000,   0.92000,
,,,-00.006276000000,   0.92000,
,,,-00.006272000000,   0.92000,
,,,-00.006268000000,   0.92000,
,,,-00.006264000000,   0.92000,
,,,-00.006260000000,   0.92000,
,,,-00.006256000000,   0.92000,
,,,-00.006252000000,   0.92000,
,,,-00.006248000000,   0.92000,
,,,-00.006244000000,   0.92000,
,,,-00.006240000000,   0.92000,
,,,-00.006236000000,   0.92000,
,,,-00.006232000000,   0.92000,
,,,-00.006228000000,   0.92000,
,,,-00.006224000000,   0.92000,
,,,-00.006220000000,   0.92000,
,,,-00.006216000000,   0.92000,
,,,-00.006212000000,   0.92000,
,,,-00.006208000000,   0.92000,
,,,-00.006204000000,   0.92000,
,,,-00.006200000000,   0.92000,
,,,-00.006196000000,   0.92000,
,,,-00.006192000000,   0.92000,
,,,-00.006188000000,   0.92000,
,,,-00.006184000000,   0.92000,
,,,-00.006180000000,   0.92000,
,,,-00.006176000000,   0.96000,
,,,-00.006172000000,   0.92000,
,,,-00.006168000000,   0.96000,
,,,-00.006164000000,   1.04000,
,,,-00.006160000000,   2.00000,
,,,-00.006156000000,   2.16000,
,,,-00.006152000000,   2.20000,
,,,-00.006148000000,   2.20000,
,,,-00.006144000000,   2.20000,
,,,-00.006140000000,   2.24000,
,,,-00.006136000000,   2.20000,
,,,-00.006132000000,   2.24000,
,,,-00.006128000000,   2.20000,
,,,-00.006124000000,   2.20000,
,,,-00.006120000000,   2.20000,
,,,-00.006116000000,   2.20000,
,,,-00.006112000000,   2.20000,
,,,-00.006108000000,   2.24000,
,,,-00.006104000000,   2.20000,
,,,-00.006100000000,   2.24000,
,,,-00.006096000000,   2.20000,
,,,-00.006092000000,   2.20000,
,,,-00.006088000000,   2.24000,
,,,-00.006084000000,   2.24000,
,,,-00.006080000000,   2.24000,
,,,-00.006076000000,   2.24000,
,,,-00.006072000000,   2.20000,
,,,-00.006068000000,   2.20000,
,,,-00.006064000000,   2.20000,
,,,-00.006060000000,   2.20000,
,,,-00.006056000000,   2.20000,
,,,-00.006052000000,   2.20000,
,,,-00.006048000000,   2.20000,
,,,-00.006044000000,   2.24000,
,,,-00.006040000000,   2.20000,
,,,-00.006036000000,   2.24000,
,,,-00.006032000000,   2.20000,
,,,-00.006028000000,   2.24000,
,,,-00.006024000000,   2.24000,
,,,-00.006020000000,   2.20000,
,,,-00.006016000000,   2.20000,
,,,-00.006012000000,   2.20000,
,,,-00.006008000000,   2.20000,
,,,-00.006004000000,   2.20000,
,,,-00.006000000000,   2.20000,
,,,-00.005996000000,   2.20000,
,,,-00.005992000000,   2.20000,
,,,-00.005988000000,   2.20000,
,,,-00.005984000000,   2.20000,
,,,-00.005980000000,   2.20000,
,,,-00.005976000000,   2.16000,
,,,-00.005972000000,   2.20000,
,,,-00.005968000000,   2.16000,
,,,-00.005964000000,   2.20000,
,,,-00.005960000000,   2.16000,
,,,-00.005956000000,   2.16000,
,,,-00.005952000000,   2.16000,
,,,-00.005948000000,   2.16000,
,,,-00.005944000000,   2.16000,
,,,-00.005940000000,   2.12000,
,,,-00.005936000000,   2.12000,
,,,-00.005932000000,   2.16000,
,,,-00.005928000000,   2.16000,
,,,-00.005924000000,   2.16000,
,,,-00.005920000000,   2.12000,
,,,-00.005916000000,   2.12000,
,,,-00.005912000000,   2.12000,
,,,-00.005908000000,   2.12000,
,,,-00.005904000000,   2.12000,
,,,-00.005900000000,   2.12000,
,,,-00.005896000000,   2.08000,
,,,-00.005892000000,   2.12000,
,,,-00.005888000000,   2.12000,
,,,-00.005884000000,   2.12000,
,,,-00.005880000000,   2.08000,
,,,-00.005876000000,   2.08000,
,,,-00.005872000000,   2.08000,
,,,-00.005868000000,   2.12000,
,,,-00.005864000000,   2.12000,
,,,-00.005860000000,   2.08000,
,,,-00.005856000000,   2.08000,
,,,-00.005852000000,   2.08000,
,,,-00.005848000000,   2.08000,
,,,-00.005844000000,   2.08000,
,,,-00.005840000000,   2.04000,
,,,-00.005836000000,   2.04000,
,,,-00.005832000000,   1.48000,
,,,-00.005828000000,   1.32000,
,,,-00.005824000000,   1.32000,
,,,-00.005820000000,   1.32000,
,,,-00.005816000000,   1.28000,
,,,-00.005812000000,   1.28000,
,,,-00.005808000000,   1.28000,
,,,-00.005804000000,   1.28000,
,,,-00.005800000000,   1.28000,
,,,-00.005796000000,   1.24000,
,,,-00.005792000000,   1.24000,
,,,-00.005788000000,   1.24000,
,,,-00.005784000000,   1.20000,
,,,-00.005780000000,   1.24000,
,,,-00.005776000000,   1.20000,
,,,-00.005772000000,   1.20000,
,,,-00.005768000000,   1.20000,
,,,-00.005764000000,   1.16000,
,,,-00.005760000000,   1.16000,
,,,-00.005756000000,   1.16000,
,,,-00.005752000000,   1.16000,
,,,-00.005748000000,   1.12000,
,,,-00.005744000000,   1.16000,
,,,-00.005740000000,   1.16000,
,,,-00.005736000000,   1.12000,
,,,-00.005732000000,   1.12000,
,,,-00.005728000000,   1.12000,
,,,-00.005724000000,   1.12000,
,,,-00.005720000000,   1.12000,
,,,-00.005716000000,   1.12000,
,,,-00.005712000000,   1.12000,
,,,-00.005708000000,   1.12000,
,,,-00.005704000000,   1.08000,
,,,-00.005700000000,   1.08000,
,,,-00.005696000000,   1.08000,
,,,-00.005692000000,   1.08000,
,,,-00.005688000000,   1.08000,
,,,-00.005684000000,   1.08000,
,,,-00.005680000000,   1.04000,
,,,-00.005676000000,   1.08000,
,,,-00.005672000000,   1.04000,
,,,-00.005668000000,   1.04000,
,,,-00.005664000000,   1.08000,
,,,-00.005660000000,   1.04000,
,,,-00.005656000000,   1.04000,
,,,-00.005652000000,   1.04000,
,,,-00.005648000000,   1.04000,
,,,-00.005644000000,   1.04000,
,,,-00.005640000000,   1.00000,
,,,-00.005636000000,   1.00000,
,,,-00.005632000000,   1.00000,
,,,-00.005628000000,   1.00000,
,,,-00.005624000000,   1.00000,
,,,-00.005620000000,   1.00000,
,,,-00.005616000000,   1.00000,
,,,-00.005612000000,   1.00000,
,,,-00.005608000000,   1.00000,
,,,-00.005604000000,   1.00000,
,,,-00.005600000000,   1.00000,
,,,-00.005596000000,   1.00000,
,,,-00.005592000000,   0.96000,
,,,-00.005588000000,   0.96000,
,,,-00.005584000000,   0.96000,
,,,-00.005580000000,   0.96000,
,,,-00.005576000000,   0.96000,
,,,-00.005572000000,   0.96000,
,,,-00.005568000000,   0.96000,
,,,-00.005564000000,   0.96000,
,,,-00.005560000000,   0.96000,
,,,-00.005556000000,   1.00000,
,,,-00.005552000000,   0.92000,
,,,-00.005548000000,   0.92000,
,,,-00.005544000000,   0.96000,
,,,-00.005540000000,   0.92000,
,,,-00.005536000000,   0.92000,
,,,-00.005532000000,   0.92000,
,,,-00.005528000000,   0.92000,
,,,-00.005524000000,   0.92000,
,,,-00.005520000000,   0.92000,
,,,-00.005516000000,   0.92000,
,,,-00.005512000000,   0.92000,
,,,-00.005508000000,   0.92000,
,,,-00.005504000000,   0.92000,
,,,-00.005500000000,   0.92000,
,,,-00.005496000000,   0.96000,
,,,-00.005492000000,   0.92000,
,,,-00.005488000000,   0.92000,
,,,-00.005484000000,   0.88000,
,,,-00.005480000000,   0.88000,
,,,-00.005476000000,   0.92000,
,,,-00.005472000000,   0.92000,
,,,-00.005468000000,   0.92000,
,,,-00.005464000000,   0.92000,
,,,-00.005460000000,   0.92000,
,,,-00.005456000000,   0.92000,
,,,-00.005452000000,   0.92000,
,,,-00.005448000000,   0.92000,
,,,-00.005444000000,   0.92000,
,,,-00.005440000000,   0.92000,
,,,-00.005436000000,   0.92000,
,,,-00.005432000000,   0.92000,
,,,-00.005428000000,   0.92000,
,,,-00.005424000000,   0.92000,
,,,-00.005420000000,   0.92000,
,,,-00.005416000000,   0.92000,
,,,-00.005412000000,   0.96000,
,,,-00.005408000000,   0.96000,
,,,-00.005404000000,   0.96000,
,,,-00.005400000000,   0.96000,
,,,-00.005396000000,   1.00000,
,,,-00.005392000000,   1.68000,
,,,-00.005388000000,   2.16000,
,,,-00.005384000000,   2.20000,
,,,-00.005380000000,   2.24000,
,,,-00.005376000000,   2.20000,
,,,-00.005372000000,   2.20000,
,,,-00.005368000000,   2.24000,
,,,-00.005364000000,   2.20000,
,,,-00.005360000000,   2.20000,
,,,-00.005356000000,   2.24000,
,,,-00.005352000000,   2.20000,
,,,-00.005348000000,   2.24000,
,,,-00.005344000000,   2.24000,
,,,-00.005340000000,   2.20000,
,,,-00.005336000000,   2.20000,
,,,-00.005332000000,   2.24000,
,,,-00.005328000000,   2.24000,
,,,-00.005324000000,   2.24000,
,,,-00.005320000000,   2.20000,
,,,-00.005316000000,   2.20000,
,,,-00.005312000000,   2.24000,
,,,-00.005308000000,   2.24000,
,,,-00.005304000000,   2.20000,
,,,-00.005300000000,   2.24000,
,,,-00.005296000000,   2.20000,
,,,-00.005292000000,   2.24000,
,,,-00.005288000000,   2.20000,
,,,-00.005284000000,   2.24000,
,,,-00.005280000000,   2.24000,
,,,-00.005276000000,   2.24000,
,,,-00.005272000000,   2.24000,
,,,-00.005268000000,   2.24000,
,,,-00.005264000000,   2.20000,
,,,-00.005260000000,   2.20000,
,,,-00.005256000000,   2.20000,
,,,-00.005252000000,   2.20000,
,,,-00.005248000000,   2.20000,
,,,-00.005244000000,   2.20000,
,,,-00.005240000000,   2.20000,
,,,-00.005236000000,   2.20000,
,,,-00.005232000000,   2.20000,
,,,-00.005228000000,   2.20000,
,,,-00.005224000000,   2.20000,
,,,-00.005220000000,   2.20000,
,,,-00.005216000000,   2.16000,
,,,-00.005212000000,   2.20000,
,,,-00.005208000000,   2.20000,
,,,-00.005204000000,   2.20000,
,,,-00.005200000000,   2.20000,
,,,-00.005196000000,   2.16000,
,,,-00.005192000000,   2.16000,
,,,-00.005188000000,   2.16000,
,,,-00.005184000000,   2.16000,
,,,-00.005180000000,   2.16000,
,,,-00.005176000000,   2.12000,
,,,-00.005172000000,   2.12000,
,,,-00.005168000000,   2.12000,
,,,-00.005164000000,   2.12000,
,,,-00.005160000000,   2.12000,
,,,-00.005156000000,   2.16000,
,,,-00.005152000000,   2.12000,
,,,-00.005148000000,   2.12000,
,,,-00.005144000000,   2.12000,
,,,-00.005140000000,   2.08000,
,,,-00.005136000000,   2.12000,
,,,-00.005132000000,   2.12000,
,,,-00.005128000000,   2.12000,
,,,-00.005124000000,   2.12000,
,,,-00.005120000000,   2.12000,
,,,-00.005116000000,   2.12000,
,,,-00.005112000000,   2.12000,
,,,-00.005108000000,   2.04000,
,,,-00.005104000000,   2.12000,
,,,-00.005100000000,   2.08000,
,,,-00.005096000000,   2.08000,
,,,-00.005092000000,   2.08000,
,,,-00.005088000000,   2.04000,
,,,-00.005084000000,   2.04000,
,,,-00.005080000000,   2.08000,
,,,-00.005076000000,   2.08000,
,,,-00.005072000000,   2.08000,
,,,-00.005068000000,   2.04000,
,,,-00.005064000000,   2.00000,
,,,-00.005060000000,   1.40000,
,,,-00.005056000000,   1.28000,
,,,-00.005052000000,   1.32000,
,,,-00.005048000000,   1.28000,
,,,-00.005044000000,   1.28000,
,,,-00.005040000000,   1.24000,
,,,-00.005036000000,   1.28000,
,,,-00.005032000000,   1.24000,
,,,-00.005028000000,   1.24000,
,,,-00.005024000000,   1.24000,
,,,-00.005020000000,   1.24000,
,,,-00.005016000000,   1.24000,
,,,-00.005012000000,   1.24000,
,,,-00.005008000000,   1.20000,
,,,-00.005004000000,   1.20000,
,,,-00.005000000000,   1.20000,
,,,-00.004996000000,   1.20000,
,,,-00.004992000000,   1.16000,
,,,-00.004988000000,   1.20000,
,,,-00.004984000000,   1.16000,
,,,-00.004980000000,   1.16000,
,,,-00.004976000000,   1.16000,
,,,-00.004972000000,   1.16000,
,,,-00.004968000000,   1.16000,
,,,-00.004964000000,   1.12000,
,,,-00.004960000000,   1.12000,
,,,-00.004956000000,   1.12000,
,,,-00.004952000000,   1.12000,
,,,-00.004948000000,   1.12000,
